<?xml version="1.0" encoding="utf-8"?>
<!-- Generator: Adobe Illustrator 26.0.3, SVG Export Plug-In . SVG Version: 6.00 Build 0)  -->
<svg version="1.1" id="Calque_1" xmlns="http://www.w3.org/2000/svg" xmlns:xlink="http://www.w3.org/1999/xlink" x="0px" y="0px"
	 viewBox="0 0 16 16" enable-background="new 0 0 16 16" xml:space="preserve">
<path fill="#767486" d="M8,1.6C4.4,1.6,1.6,4.4,1.6,8s2.9,6.4,6.4,6.4s6.4-2.9,6.4-6.4S11.6,1.6,8,1.6z M8,13.2
	c-2.9,0-5.2-2.4-5.2-5.2S5.1,2.8,8,2.8s5.2,2.4,5.2,5.2S10.9,13.2,8,13.2z"/>
<path fill="#767486" stroke="#767486" stroke-width="0.3" d="M6.7,9.9L6.7,9.9L6.7,9.9C6.7,10,6.7,10,6.7,9.9C6.8,10,6.9,10,7,10
	C7.1,10,7.2,10,7.3,10c0,0,0,0,0,0l0,0l0,0l3.2-3.4l-0.1-0.1l0.1,0.1c0.1-0.1,0.1-0.2,0.1-0.3c0-0.1,0-0.2-0.1-0.3L10.5,6l0.1-0.1
	c-0.1-0.1-0.2-0.1-0.3-0.1s-0.2,0-0.3,0.1L7,8.9L5.9,7.7C5.8,7.6,5.6,7.6,5.5,7.6c-0.1,0-0.2,0-0.3,0.1C5.1,7.8,5.1,7.9,5.1,8.1
	c0,0.1,0,0.2,0.1,0.3L6.7,9.9z"/>
</svg>
