<?xml version="1.0" encoding="utf-8"?>
<!-- Generator: Adobe Illustrator 26.0.3, SVG Export Plug-In . SVG Version: 6.00 Build 0)  -->
<svg version="1.1" id="Calque_1" xmlns="http://www.w3.org/2000/svg" xmlns:xlink="http://www.w3.org/1999/xlink" x="0px" y="0px"
	 viewBox="0 0 24 24" enable-background="new 0 0 24 24" xml:space="preserve">
<path fill="#767486" d="M18.9,8.8h-0.8v-5c0-0.5-0.4-0.8-0.8-0.8H7.2C6.7,3,6.4,3.4,6.4,3.8v5H5.5C4.2,8.8,3,9.9,3,11.3v4.2
	C3,16.9,4.1,18,5.5,18h0.8v2.5c0,0.5,0.4,0.8,0.8,0.8h10c0.5,0,0.8-0.4,0.8-0.8V18h0.8c1.4,0,2.5-1.1,2.5-2.5v-4.2
	C21.4,9.9,20.2,8.8,18.9,8.8z M8,4.6h8.3v4.2H8V4.6z M16.4,19.6H8v-5h8.3v5H16.4z M19.7,15.4c0,0.5-0.4,0.8-0.8,0.8h-0.8v-2.5
	c0-0.5-0.4-0.8-0.8-0.8H7.2c-0.5,0-0.8,0.4-0.8,0.8v2.5H5.5c-0.5,0-0.8-0.4-0.8-0.8v-4.1c0-0.5,0.4-0.8,0.8-0.8h13.3
	c0.5,0,0.8,0.4,0.8,0.8v4.1H19.7z"/>
</svg>
